EESchema Schematic File Version 4
LIBS:feather volt translator-cache
EELAYER 26 0
EELAYER END
$Descr B 17000 11000
encoding utf-8
Sheet 1 1
Title ""
Date ""
Rev ""
Comp ""
Comment1 ""
Comment2 ""
Comment3 ""
Comment4 ""
$EndDescr
$Comp
L Connector:Conn_01x12_Male J1
U 1 1 5C93451E
P 800 1600
F 0 "J1" H 906 2278 50  0000 C CNN
F 1 "PPTC121LFBN-RC" H 906 2187 50  0000 C CNN
F 2 "IPC_HDR:RHDRV12W75P254_12X1_3098X254H850" H 800 1600 50  0001 C CNN
F 3 "https://drawings-pdf.s3.amazonaws.com/10492.pdf" H 800 1600 50  0001 C CNN
	1    800  1600
	1    0    0    -1  
$EndComp
$Comp
L Connector:Conn_01x16_Male J2
U 1 1 5C93457B
P 800 3300
F 0 "J2" H 906 4178 50  0000 C CNN
F 1 "PPTC161LFBN-RC" H 906 4087 50  0000 C CNN
F 2 "IPC_HDR:RHDRV16W75P254_16X1_4114X254H850" H 800 3300 50  0001 C CNN
F 3 "https://drawings-pdf.s3.amazonaws.com/10492.pdf" H 800 3300 50  0001 C CNN
	1    800  3300
	1    0    0    -1  
$EndComp
$Comp
L Connector:Screw_Terminal_01x16 J3
U 1 1 5C93471D
P 15900 6000
F 0 "J3" H 15850 6900 50  0000 L CNN
F 1 "Screw_Terminal_01x16" H 15350 6800 50  0000 L CNN
F 2 "IPC_MFG:PHOENIX_1984756" H 15900 6000 50  0001 C CNN
F 3 "~" H 15900 6000 50  0001 C CNN
	1    15900 6000
	1    0    0    -1  
$EndComp
$Comp
L Connector:Screw_Terminal_01x16 J4
U 1 1 5C9347B7
P 15900 7900
F 0 "J4" H 15850 8800 50  0000 L CNN
F 1 "Screw_Terminal_01x16" H 15350 8700 50  0000 L CNN
F 2 "IPC_MFG:PHOENIX_1984756" H 15900 7900 50  0001 C CNN
F 3 "~" H 15900 7900 50  0001 C CNN
	1    15900 7900
	1    0    0    -1  
$EndComp
$Comp
L Connector_Generic:Conn_02x02_Odd_Even J5
U 1 1 5C934857
P 11100 1100
F 0 "J5" H 11150 1317 50  0000 C CNN
F 1 "Conn_02x02_Odd_Even" H 11150 1226 50  0000 C CNN
F 2 "IPC_HDR:HDRV4W41P127_2X2_254X343H116" H 11100 1100 50  0001 C CNN
F 3 "~" H 11100 1100 50  0001 C CNN
	1    11100 1100
	1    0    0    -1  
$EndComp
$Comp
L Connector_Generic:Conn_02x02_Odd_Even J6
U 1 1 5C9348C9
P 11100 1600
F 0 "J6" H 11150 1817 50  0000 C CNN
F 1 "Conn_02x02_Odd_Even" H 11150 1726 50  0000 C CNN
F 2 "IPC_HDR:HDRV4W41P127_2X2_254X343H116" H 11100 1600 50  0001 C CNN
F 3 "~" H 11100 1600 50  0001 C CNN
	1    11100 1600
	1    0    0    -1  
$EndComp
$Comp
L Connector_Generic:Conn_02x02_Odd_Even J7
U 1 1 5C934A4D
P 11100 2100
F 0 "J7" H 11150 2317 50  0000 C CNN
F 1 "Conn_02x02_Odd_Even" H 11150 2226 50  0000 C CNN
F 2 "IPC_HDR:HDRV4W41P127_2X2_254X343H116" H 11100 2100 50  0001 C CNN
F 3 "~" H 11100 2100 50  0001 C CNN
	1    11100 2100
	1    0    0    -1  
$EndComp
$Comp
L Connector_Generic:Conn_02x02_Odd_Even J8
U 1 1 5C934A9F
P 11100 2600
F 0 "J8" H 11150 2817 50  0000 C CNN
F 1 "Conn_02x02_Odd_Even" H 11150 2726 50  0000 C CNN
F 2 "IPC_HDR:HDRV4W41P127_2X2_254X343H116" H 11100 2600 50  0001 C CNN
F 3 "~" H 11100 2600 50  0001 C CNN
	1    11100 2600
	1    0    0    -1  
$EndComp
$Comp
L Connector_Generic:Conn_02x02_Odd_Even J9
U 1 1 5C934ACD
P 11100 3100
F 0 "J9" H 11150 3317 50  0000 C CNN
F 1 "Conn_02x02_Odd_Even" H 11150 3226 50  0000 C CNN
F 2 "IPC_HDR:HDRV4W41P127_2X2_254X343H116" H 11100 3100 50  0001 C CNN
F 3 "~" H 11100 3100 50  0001 C CNN
	1    11100 3100
	1    0    0    -1  
$EndComp
$Comp
L Connector_Generic:Conn_02x02_Odd_Even J10
U 1 1 5C934AFF
P 12600 1100
F 0 "J10" H 12650 1317 50  0000 C CNN
F 1 "Conn_02x02_Odd_Even" H 12650 1226 50  0000 C CNN
F 2 "IPC_HDR:HDRV4W41P127_2X2_254X343H116" H 12600 1100 50  0001 C CNN
F 3 "~" H 12600 1100 50  0001 C CNN
	1    12600 1100
	1    0    0    -1  
$EndComp
$Comp
L Connector_Generic:Conn_02x02_Odd_Even J11
U 1 1 5C934B41
P 12600 1600
F 0 "J11" H 12650 1817 50  0000 C CNN
F 1 "Conn_02x02_Odd_Even" H 12650 1726 50  0000 C CNN
F 2 "IPC_HDR:HDRV4W41P127_2X2_254X343H116" H 12600 1600 50  0001 C CNN
F 3 "~" H 12600 1600 50  0001 C CNN
	1    12600 1600
	1    0    0    -1  
$EndComp
$Comp
L Connector_Generic:Conn_02x02_Odd_Even J12
U 1 1 5C934B79
P 12600 2100
F 0 "J12" H 12650 2317 50  0000 C CNN
F 1 "Conn_02x02_Odd_Even" H 12650 2226 50  0000 C CNN
F 2 "IPC_HDR:HDRV4W41P127_2X2_254X343H116" H 12600 2100 50  0001 C CNN
F 3 "~" H 12600 2100 50  0001 C CNN
	1    12600 2100
	1    0    0    -1  
$EndComp
$Comp
L Connector_Generic:Conn_02x02_Odd_Even J13
U 1 1 5C934BB7
P 12600 2600
F 0 "J13" H 12650 2817 50  0000 C CNN
F 1 "Conn_02x02_Odd_Even" H 12650 2726 50  0000 C CNN
F 2 "IPC_HDR:HDRV4W41P127_2X2_254X343H116" H 12600 2600 50  0001 C CNN
F 3 "~" H 12600 2600 50  0001 C CNN
	1    12600 2600
	1    0    0    -1  
$EndComp
$Comp
L Connector_Generic:Conn_02x02_Odd_Even J14
U 1 1 5C934BF1
P 12600 3100
F 0 "J14" H 12650 3317 50  0000 C CNN
F 1 "Conn_02x02_Odd_Even" H 12650 3226 50  0000 C CNN
F 2 "IPC_HDR:HDRV4W41P127_2X2_254X343H116" H 12600 3100 50  0001 C CNN
F 3 "~" H 12600 3100 50  0001 C CNN
	1    12600 3100
	1    0    0    -1  
$EndComp
$Comp
L Connector_Generic:Conn_02x02_Odd_Even J15
U 1 1 5C934C2F
P 14100 1100
F 0 "J15" H 14150 1317 50  0000 C CNN
F 1 "Conn_02x02_Odd_Even" H 14150 1226 50  0000 C CNN
F 2 "IPC_HDR:HDRV4W41P127_2X2_254X343H116" H 14100 1100 50  0001 C CNN
F 3 "~" H 14100 1100 50  0001 C CNN
	1    14100 1100
	1    0    0    -1  
$EndComp
$Comp
L Connector_Generic:Conn_02x02_Odd_Even J16
U 1 1 5C934CA3
P 14100 1600
F 0 "J16" H 14150 1817 50  0000 C CNN
F 1 "Conn_02x02_Odd_Even" H 14150 1726 50  0000 C CNN
F 2 "IPC_HDR:HDRV4W41P127_2X2_254X343H116" H 14100 1600 50  0001 C CNN
F 3 "~" H 14100 1600 50  0001 C CNN
	1    14100 1600
	1    0    0    -1  
$EndComp
$Comp
L Connector_Generic:Conn_02x02_Odd_Even J19
U 1 1 5C934CE1
P 14100 3100
F 0 "J19" H 14150 3317 50  0000 C CNN
F 1 "Conn_02x02_Odd_Even" H 14150 3226 50  0000 C CNN
F 2 "IPC_HDR:HDRV4W41P127_2X2_254X343H116" H 14100 3100 50  0001 C CNN
F 3 "~" H 14100 3100 50  0001 C CNN
	1    14100 3100
	1    0    0    -1  
$EndComp
$Comp
L Connector_Generic:Conn_02x02_Odd_Even J17
U 1 1 5C934D2F
P 14100 2100
F 0 "J17" H 14150 2317 50  0000 C CNN
F 1 "Conn_02x02_Odd_Even" H 14150 2226 50  0000 C CNN
F 2 "IPC_HDR:HDRV4W41P127_2X2_254X343H116" H 14100 2100 50  0001 C CNN
F 3 "~" H 14100 2100 50  0001 C CNN
	1    14100 2100
	1    0    0    -1  
$EndComp
$Comp
L Connector_Generic:Conn_02x02_Odd_Even J18
U 1 1 5C934D77
P 14100 2600
F 0 "J18" H 14150 2817 50  0000 C CNN
F 1 "Conn_02x02_Odd_Even" H 14150 2726 50  0000 C CNN
F 2 "IPC_HDR:HDRV4W41P127_2X2_254X343H116" H 14100 2600 50  0001 C CNN
F 3 "~" H 14100 2600 50  0001 C CNN
	1    14100 2600
	1    0    0    -1  
$EndComp
$Comp
L Connector_Generic:Conn_02x02_Odd_Even J20
U 1 1 5C934DC1
P 15600 1100
F 0 "J20" H 15650 1317 50  0000 C CNN
F 1 "Conn_02x02_Odd_Even" H 15650 1226 50  0000 C CNN
F 2 "IPC_HDR:HDRV4W41P127_2X2_254X343H116" H 15600 1100 50  0001 C CNN
F 3 "~" H 15600 1100 50  0001 C CNN
	1    15600 1100
	1    0    0    -1  
$EndComp
$Comp
L Connector_Generic:Conn_02x02_Odd_Even J21
U 1 1 5C934E3B
P 15600 1600
F 0 "J21" H 15650 1817 50  0000 C CNN
F 1 "Conn_02x02_Odd_Even" H 15650 1726 50  0000 C CNN
F 2 "IPC_HDR:HDRV4W41P127_2X2_254X343H116" H 15600 1600 50  0001 C CNN
F 3 "~" H 15600 1600 50  0001 C CNN
	1    15600 1600
	1    0    0    -1  
$EndComp
$Comp
L Connector_Generic:Conn_02x02_Odd_Even J22
U 1 1 5C934E85
P 15600 2100
F 0 "J22" H 15650 2317 50  0000 C CNN
F 1 "Conn_02x02_Odd_Even" H 15650 2226 50  0000 C CNN
F 2 "IPC_HDR:HDRV4W41P127_2X2_254X343H116" H 15600 2100 50  0001 C CNN
F 3 "~" H 15600 2100 50  0001 C CNN
	1    15600 2100
	1    0    0    -1  
$EndComp
$Comp
L Connector_Generic:Conn_02x02_Odd_Even J23
U 1 1 5C934ED1
P 15600 2600
F 0 "J23" H 15650 2817 50  0000 C CNN
F 1 "Conn_02x02_Odd_Even" H 15650 2726 50  0000 C CNN
F 2 "IPC_HDR:HDRV4W41P127_2X2_254X343H116" H 15600 2600 50  0001 C CNN
F 3 "~" H 15600 2600 50  0001 C CNN
	1    15600 2600
	1    0    0    -1  
$EndComp
$Comp
L Connector_Generic:Conn_02x02_Odd_Even J24
U 1 1 5C934F25
P 15600 3100
F 0 "J24" H 15650 3317 50  0000 C CNN
F 1 "Conn_02x02_Odd_Even" H 15650 3226 50  0000 C CNN
F 2 "IPC_HDR:HDRV4W41P127_2X2_254X343H116" H 15600 3100 50  0001 C CNN
F 3 "~" H 15600 3100 50  0001 C CNN
	1    15600 3100
	1    0    0    -1  
$EndComp
Text Label 10700 1100 2    50   ~ 0
13_3V
Text Label 10700 1200 2    50   ~ 0
13_5V
Text Label 11600 1100 0    50   ~ 0
13
Wire Wire Line
	11400 1100 11500 1100
Wire Wire Line
	11400 1200 11500 1200
Wire Wire Line
	11500 1200 11500 1100
Wire Wire Line
	11500 1100 11600 1100
Connection ~ 11500 1100
Wire Wire Line
	11400 1700 11500 1700
Wire Wire Line
	11500 1700 11500 1600
Wire Wire Line
	11500 1600 11400 1600
Wire Wire Line
	11500 1600 11600 1600
Connection ~ 11500 1600
Text Label 10700 1600 2    50   ~ 0
12_3V
Text Label 10700 1700 2    50   ~ 0
12_5V
Text Label 11600 1600 0    50   ~ 0
12
Wire Wire Line
	10700 1700 10900 1700
Wire Wire Line
	10700 1600 10900 1600
Wire Wire Line
	10700 1200 10900 1200
Wire Wire Line
	10700 1100 10900 1100
Text Label 10700 2100 2    50   ~ 0
11_3V
Wire Wire Line
	10900 2100 10700 2100
Text Label 10700 2200 2    50   ~ 0
11_5V
Text Label 11600 2100 0    50   ~ 0
11
Text Label 11600 2600 0    50   ~ 0
10
Text Label 11600 3100 0    50   ~ 0
9
Text Label 10700 3200 2    50   ~ 0
9_5V
Text Label 10700 3100 2    50   ~ 0
9_3V
Text Label 10700 2700 2    50   ~ 0
10_5V
Text Label 10700 2600 2    50   ~ 0
10_3V
Wire Wire Line
	10900 2200 10700 2200
Wire Wire Line
	11400 2200 11500 2200
Wire Wire Line
	11500 2200 11500 2100
Wire Wire Line
	11500 2100 11600 2100
Wire Wire Line
	11400 2100 11500 2100
Connection ~ 11500 2100
Wire Wire Line
	10700 2700 10900 2700
Wire Wire Line
	10700 2600 10900 2600
Wire Wire Line
	11400 2600 11500 2600
Wire Wire Line
	11400 2700 11500 2700
Wire Wire Line
	11500 2700 11500 2600
Connection ~ 11500 2600
Wire Wire Line
	11500 2600 11600 2600
Wire Wire Line
	10700 3100 10900 3100
Wire Wire Line
	10700 3200 10900 3200
Wire Wire Line
	11400 3100 11500 3100
Wire Wire Line
	11400 3200 11500 3200
Wire Wire Line
	11500 3200 11500 3100
Connection ~ 11500 3100
Wire Wire Line
	11500 3100 11600 3100
Wire Wire Line
	12200 1100 12400 1100
Text Label 12200 1100 2    50   ~ 0
6_3V
Text Label 12200 1200 2    50   ~ 0
6_5V
Text Label 12200 1600 2    50   ~ 0
5_3V
Text Label 12200 1700 2    50   ~ 0
5_5V
Text Label 12200 2100 2    50   ~ 0
SCL_3V
Text Label 12200 2200 2    50   ~ 0
SCL_5V
Text Label 12200 2600 2    50   ~ 0
SDA_3V
Text Label 12200 2700 2    50   ~ 0
SDA_5V
Text Label 12200 3100 2    50   ~ 0
A0_3V
Text Label 12200 3200 2    50   ~ 0
A0_5V
Text Label 13100 1100 0    50   ~ 0
6
Text Label 13100 1600 0    50   ~ 0
5
Text Label 13100 2100 0    50   ~ 0
SCL
Text Label 13100 2600 0    50   ~ 0
SDA
Text Label 13100 3100 0    50   ~ 0
A0
Wire Wire Line
	12200 1200 12400 1200
Wire Wire Line
	12200 1600 12400 1600
Wire Wire Line
	12200 1700 12400 1700
Wire Wire Line
	12200 2100 12400 2100
Wire Wire Line
	12200 2200 12400 2200
Wire Wire Line
	12200 2600 12400 2600
Wire Wire Line
	12200 2700 12400 2700
Wire Wire Line
	12200 3100 12400 3100
Wire Wire Line
	12200 3200 12400 3200
Wire Wire Line
	12900 3100 13000 3100
Wire Wire Line
	12900 3200 13000 3200
Wire Wire Line
	13000 3200 13000 3100
Connection ~ 13000 3100
Wire Wire Line
	13000 3100 13100 3100
Wire Wire Line
	12900 2600 13000 2600
Wire Wire Line
	12900 2700 13000 2700
Wire Wire Line
	13000 2700 13000 2600
Connection ~ 13000 2600
Wire Wire Line
	13000 2600 13100 2600
Wire Wire Line
	12900 2200 13000 2200
Wire Wire Line
	13000 2200 13000 2100
Wire Wire Line
	13000 2100 13100 2100
Wire Wire Line
	12900 2100 13000 2100
Connection ~ 13000 2100
Wire Wire Line
	12900 1600 13000 1600
Wire Wire Line
	12900 1700 13000 1700
Wire Wire Line
	13000 1700 13000 1600
Connection ~ 13000 1600
Wire Wire Line
	13000 1600 13100 1600
Wire Wire Line
	12900 1100 13000 1100
Wire Wire Line
	12900 1200 13000 1200
Wire Wire Line
	13000 1200 13000 1100
Connection ~ 13000 1100
Wire Wire Line
	13000 1100 13100 1100
Text Label 14600 1100 0    50   ~ 0
A1
Text Label 14600 1600 0    50   ~ 0
A2
Text Label 14600 2100 0    50   ~ 0
A3
Text Label 14600 2600 0    50   ~ 0
A4
Text Label 14600 3100 0    50   ~ 0
A5
Text Label 16100 3100 0    50   ~ 0
TX
Text Label 16100 2600 0    50   ~ 0
RX
Text Label 16100 2100 0    50   ~ 0
MISO
Text Label 16100 1600 0    50   ~ 0
MOSI
Text Label 16100 1100 0    50   ~ 0
SCK
Text Label 15200 3200 2    50   ~ 0
TX_5V
Text Label 15200 3100 2    50   ~ 0
TX_3V
Text Label 15200 2700 2    50   ~ 0
RX_5V
Text Label 15200 2600 2    50   ~ 0
RX_3V
Text Label 15200 2200 2    50   ~ 0
MISO_5V
Text Label 15200 2100 2    50   ~ 0
MISO_3V
Text Label 15200 1700 2    50   ~ 0
MOSI_5V
Text Label 15200 1600 2    50   ~ 0
MOSI_3V
Text Label 15200 1200 2    50   ~ 0
SCK_5V
Text Label 15200 1100 2    50   ~ 0
SCK_3V
Text Label 13700 3200 2    50   ~ 0
A5_5V
Text Label 13700 3100 2    50   ~ 0
A5_3V
Text Label 13700 2700 2    50   ~ 0
A4_5V
Text Label 13700 2600 2    50   ~ 0
A4_3V
Text Label 13700 2200 2    50   ~ 0
A3_5V
Text Label 13700 2100 2    50   ~ 0
A3_3V
Text Label 13700 1700 2    50   ~ 0
A2_5V
Text Label 13700 1600 2    50   ~ 0
A2_3V
Text Label 13700 1200 2    50   ~ 0
A1_5V
Text Label 13700 1100 2    50   ~ 0
A1_3V
Wire Wire Line
	13700 1100 13900 1100
Wire Wire Line
	13900 1200 13700 1200
Wire Wire Line
	13700 1600 13900 1600
Wire Wire Line
	13900 1700 13700 1700
Wire Wire Line
	13700 2100 13900 2100
Wire Wire Line
	13900 2200 13700 2200
Wire Wire Line
	13700 2600 13900 2600
Wire Wire Line
	13900 2700 13700 2700
Wire Wire Line
	14400 1100 14500 1100
Wire Wire Line
	14400 1200 14500 1200
Wire Wire Line
	14500 1200 14500 1100
Connection ~ 14500 1100
Wire Wire Line
	14500 1100 14600 1100
Wire Wire Line
	14400 1600 14500 1600
Wire Wire Line
	14400 1700 14500 1700
Wire Wire Line
	14500 1700 14500 1600
Connection ~ 14500 1600
Wire Wire Line
	14500 1600 14600 1600
Wire Wire Line
	14400 2100 14500 2100
Wire Wire Line
	14400 2200 14500 2200
Wire Wire Line
	14500 2200 14500 2100
Connection ~ 14500 2100
Wire Wire Line
	14500 2100 14600 2100
Wire Wire Line
	14400 2600 14500 2600
Wire Wire Line
	14400 2700 14500 2700
Wire Wire Line
	14500 2700 14500 2600
Connection ~ 14500 2600
Wire Wire Line
	14500 2600 14600 2600
Wire Wire Line
	14400 3100 14500 3100
Wire Wire Line
	14400 3200 14500 3200
Wire Wire Line
	14500 3200 14500 3100
Connection ~ 14500 3100
Wire Wire Line
	14500 3100 14600 3100
Wire Wire Line
	13900 3200 13700 3200
Wire Wire Line
	13900 3100 13700 3100
Wire Wire Line
	15200 3200 15400 3200
Wire Wire Line
	15400 3100 15200 3100
Wire Wire Line
	15200 2700 15400 2700
Wire Wire Line
	15400 2600 15200 2600
Wire Wire Line
	15200 2200 15400 2200
Wire Wire Line
	15400 2100 15200 2100
Wire Wire Line
	15200 1700 15400 1700
Wire Wire Line
	15400 1600 15200 1600
Wire Wire Line
	15900 3200 16000 3200
Wire Wire Line
	16000 3200 16000 3100
Wire Wire Line
	16000 3100 16100 3100
Wire Wire Line
	15900 3100 16000 3100
Connection ~ 16000 3100
Wire Wire Line
	15900 2700 16000 2700
Wire Wire Line
	16000 2700 16000 2600
Wire Wire Line
	16000 2600 16100 2600
Wire Wire Line
	15900 2600 16000 2600
Connection ~ 16000 2600
Wire Wire Line
	15900 2200 16000 2200
Wire Wire Line
	16000 2200 16000 2100
Wire Wire Line
	16000 2100 16100 2100
Wire Wire Line
	15900 2100 16000 2100
Connection ~ 16000 2100
Wire Wire Line
	15900 1700 16000 1700
Wire Wire Line
	16000 1700 16000 1600
Wire Wire Line
	16000 1600 16100 1600
Wire Wire Line
	15900 1600 16000 1600
Connection ~ 16000 1600
Wire Wire Line
	15900 1200 16000 1200
Wire Wire Line
	16000 1200 16000 1100
Wire Wire Line
	16000 1100 16100 1100
Wire Wire Line
	15900 1100 16000 1100
Connection ~ 16000 1100
Wire Wire Line
	15200 1200 15400 1200
Wire Wire Line
	15200 1100 15400 1100
$Comp
L TI-Interface:TXB0108 U6
U 1 1 5C8F1618
P 11900 5050
F 0 "U6" H 11900 5650 60  0000 C CNN
F 1 "TXB0108" H 11900 4450 60  0000 C CNN
F 2 "IPC_QFN:QFN21P50_450X350X100L40X24T305X205AN" H 11900 5050 60  0001 C CNN
F 3 "" H 11900 5050 60  0001 C CNN
	1    11900 5050
	1    0    0    -1  
$EndComp
$Comp
L TI-Interface:TXB0108 U7
U 1 1 5C8F16B6
P 11900 6450
F 0 "U7" H 11900 7050 60  0000 C CNN
F 1 "TXB0108" H 11900 5850 60  0000 C CNN
F 2 "IPC_QFN:QFN21P50_450X350X100L40X24T305X205AN" H 11900 6450 60  0001 C CNN
F 3 "" H 11900 6450 60  0001 C CNN
	1    11900 6450
	1    0    0    -1  
$EndComp
$Comp
L TI-Interface:TCA9406 U9
U 1 1 5C8F17D0
P 11900 8550
F 0 "U9" H 11900 8850 60  0000 C CNN
F 1 "TCA9406" H 11900 8250 60  0000 C CNN
F 2 "IPC_SOP:SOP8P50_200X310X90L27X21N" H 11900 8350 60  0001 C CNN
F 3 "" H 11900 8350 60  0001 C CNN
	1    11900 8550
	1    0    0    -1  
$EndComp
$Comp
L TI-Power:REF3318 U1
U 1 1 5C8F187B
P 3200 2900
F 0 "U1" H 3200 3150 50  0000 C CNN
F 1 "REF3318" H 3200 2650 50  0000 C CNN
F 2 "IPC_SOT:SOT323-3P65_210X110L36X22N" H 3200 2900 50  0001 C CNN
F 3 "" H 3200 2900 50  0001 C CNN
	1    3200 2900
	1    0    0    -1  
$EndComp
$Comp
L TI-Amplifier:THS4271 U2
U 1 1 5C8F194C
P 5400 3350
F 0 "U2" H 5450 3500 50  0000 L BNN
F 1 "THS4271" H 5450 3200 50  0000 L TNN
F 2 "IPC_SON:SON9P65_300X300X100L40X31T175X150N" H 6100 2900 50  0001 C CNN
F 3 "" H 6100 2900 50  0001 C CNN
	1    5400 3350
	1    0    0    -1  
$EndComp
$Comp
L TI-Power:TPS6302X U4
U 1 1 5C8F1A6C
P 2500 6400
F 0 "U4" H 2500 7050 50  0000 C CNN
F 1 "TPS6302X" H 2500 5750 50  0000 C CNN
F 2 "IPC_SON:SON15P50_400X300X100L40X24T285X158N" H 2500 6400 50  0001 C CNN
F 3 "" H 2500 6400 50  0001 C CNN
	1    2500 6400
	1    0    0    -1  
$EndComp
$Comp
L Transistor_FET_Generic:Q_PMOS_DDGSDD Q1
U 1 1 5C90B0F9
P 3700 1200
F 0 "Q1" H 3906 1246 50  0000 L CNN
F 1 "AO6405" H 3906 1155 50  0000 L CNN
F 2 "IPC_SOT:SOT23-6P95_280X125L45X40N" H 3700 1200 50  0001 C CNN
F 3 "http://aosmd.com/res/data_sheets/ao6405.pdf" H 3700 1200 50  0001 C CNN
	1    3700 1200
	0    1    -1   0   
$EndComp
$Comp
L power:GND #PWR02
U 1 1 5C9205AD
P 1300 4200
F 0 "#PWR02" H 1300 3950 50  0001 C CNN
F 1 "GND" H 1305 4027 50  0000 C CNN
F 2 "" H 1300 4200 50  0001 C CNN
F 3 "" H 1300 4200 50  0001 C CNN
	1    1300 4200
	1    0    0    -1  
$EndComp
$Comp
L power:+3.3V #PWR04
U 1 1 5C920621
P 1900 1000
F 0 "#PWR04" H 1900 850 50  0001 C CNN
F 1 "+3.3V" H 1915 1173 50  0000 C CNN
F 2 "" H 1900 1000 50  0001 C CNN
F 3 "" H 1900 1000 50  0001 C CNN
	1    1900 1000
	1    0    0    -1  
$EndComp
$Comp
L power:+1V8 #PWR013
U 1 1 5C92068E
P 3700 2700
F 0 "#PWR013" H 3700 2550 50  0001 C CNN
F 1 "+1V8" H 3715 2873 50  0000 C CNN
F 2 "" H 3700 2700 50  0001 C CNN
F 3 "" H 3700 2700 50  0001 C CNN
	1    3700 2700
	1    0    0    -1  
$EndComp
$Comp
L power:VBUS #PWR03
U 1 1 5C9206FB
P 1600 1000
F 0 "#PWR03" H 1600 850 50  0001 C CNN
F 1 "VBUS" H 1615 1173 50  0000 C CNN
F 2 "" H 1600 1000 50  0001 C CNN
F 3 "" H 1600 1000 50  0001 C CNN
	1    1600 1000
	1    0    0    -1  
$EndComp
$Comp
L power:+5V #PWR010
U 1 1 5C92076F
P 14900 5200
F 0 "#PWR010" H 14900 5050 50  0001 C CNN
F 1 "+5V" H 14915 5373 50  0000 C CNN
F 2 "" H 14900 5200 50  0001 C CNN
F 3 "" H 14900 5200 50  0001 C CNN
	1    14900 5200
	1    0    0    -1  
$EndComp
$Comp
L power:+BATT #PWR06
U 1 1 5C9207DC
P 3000 1000
F 0 "#PWR06" H 3000 850 50  0001 C CNN
F 1 "+BATT" H 3015 1173 50  0000 C CNN
F 2 "" H 3000 1000 50  0001 C CNN
F 3 "" H 3000 1000 50  0001 C CNN
	1    3000 1000
	1    0    0    -1  
$EndComp
$Comp
L power:VDC #PWR05
U 1 1 5C920849
P 2700 1000
F 0 "#PWR05" H 2700 900 50  0001 C CNN
F 1 "VDC" H 2700 1275 50  0000 C CNN
F 2 "" H 2700 1000 50  0001 C CNN
F 3 "" H 2700 1000 50  0001 C CNN
	1    2700 1000
	1    0    0    -1  
$EndComp
$Comp
L power:+VSW #PWR08
U 1 1 5C9209A6
P 4400 1000
F 0 "#PWR08" H 4400 850 50  0001 C CNN
F 1 "+VSW" H 4415 1173 50  0000 C CNN
F 2 "" H 4400 1000 50  0001 C CNN
F 3 "" H 4400 1000 50  0001 C CNN
	1    4400 1000
	1    0    0    -1  
$EndComp
Wire Wire Line
	3000 1100 3000 1000
Wire Wire Line
	2700 1000 2700 1500
Wire Wire Line
	3700 1500 3700 1400
$Comp
L power:+BATT #PWR01
U 1 1 5C93694A
P 1300 1000
F 0 "#PWR01" H 1300 850 50  0001 C CNN
F 1 "+BATT" H 1315 1173 50  0000 C CNN
F 2 "" H 1300 1000 50  0001 C CNN
F 3 "" H 1300 1000 50  0001 C CNN
	1    1300 1000
	1    0    0    -1  
$EndComp
Wire Wire Line
	1300 1000 1300 1100
Wire Wire Line
	1300 1100 1000 1100
Wire Wire Line
	1000 1300 1600 1300
Wire Wire Line
	1600 1300 1600 1000
Wire Wire Line
	1900 1000 1900 2700
Wire Wire Line
	1900 2700 1000 2700
Wire Wire Line
	1300 1200 1000 1200
Wire Wire Line
	1000 2900 1300 2900
Connection ~ 1300 2900
Wire Wire Line
	1300 2900 1300 1200
Wire Wire Line
	3700 2700 3700 2900
Wire Wire Line
	3700 2900 3600 2900
$Comp
L power:VDC #PWR011
U 1 1 5C968361
P 15200 5200
F 0 "#PWR011" H 15200 5100 50  0001 C CNN
F 1 "VDC" H 15200 5475 50  0000 C CNN
F 2 "" H 15200 5200 50  0001 C CNN
F 3 "" H 15200 5200 50  0001 C CNN
	1    15200 5200
	1    0    0    -1  
$EndComp
$Comp
L power:+3.3V #PWR07
U 1 1 5C9683B0
P 14600 5200
F 0 "#PWR07" H 14600 5050 50  0001 C CNN
F 1 "+3.3V" H 14615 5373 50  0000 C CNN
F 2 "" H 14600 5200 50  0001 C CNN
F 3 "" H 14600 5200 50  0001 C CNN
	1    14600 5200
	1    0    0    -1  
$EndComp
$Comp
L power:GND #PWR012
U 1 1 5C98953F
P 15300 8800
F 0 "#PWR012" H 15300 8550 50  0001 C CNN
F 1 "GND" H 15305 8627 50  0000 C CNN
F 2 "" H 15300 8800 50  0001 C CNN
F 3 "" H 15300 8800 50  0001 C CNN
	1    15300 8800
	1    0    0    -1  
$EndComp
Wire Wire Line
	15700 6200 15300 6200
Wire Wire Line
	15300 6200 15300 6400
Wire Wire Line
	15700 6400 15300 6400
Connection ~ 15300 6400
Wire Wire Line
	15300 6400 15300 6700
Wire Wire Line
	15700 6700 15300 6700
Connection ~ 15300 6700
Wire Wire Line
	15300 6700 15300 7500
Wire Wire Line
	15700 7500 15300 7500
Connection ~ 15300 7500
Wire Wire Line
	15700 6800 15200 6800
Wire Wire Line
	15200 6800 15200 5200
Wire Wire Line
	15700 6600 14900 6600
Wire Wire Line
	14900 6600 14900 6500
Wire Wire Line
	15700 6500 14900 6500
Connection ~ 14900 6500
Wire Wire Line
	14900 6500 14900 5200
Wire Wire Line
	15700 6300 14600 6300
Wire Wire Line
	14600 6300 14600 5200
$Comp
L Device:C_Small C1
U 1 1 5C9FCEF9
P 4400 1700
F 0 "C1" H 4492 1746 50  0000 L CNN
F 1 "10u" H 4492 1655 50  0000 L CNN
F 2 "IPC_CAP:CAPC160X80X95L37N" H 4400 1700 50  0001 C CNN
F 3 "~" H 4400 1700 50  0001 C CNN
	1    4400 1700
	1    0    0    -1  
$EndComp
$Comp
L Device:D_Schottky D1
U 1 1 5CA04FCF
P 4050 1500
F 0 "D1" H 4050 1284 50  0000 C CNN
F 1 "PMEG1020EJ,115" H 4050 1375 50  0000 C CNN
F 2 "IPC_SOD:SOD250X125X80L40X32N" H 4050 1500 50  0001 C CNN
F 3 "https://assets.nexperia.com/documents/data-sheet/PMEG1020EH_EJ.pdf" H 4050 1500 50  0001 C CNN
	1    4050 1500
	-1   0    0    1   
$EndComp
Connection ~ 4400 1100
Wire Wire Line
	4400 1100 4400 1000
Connection ~ 3700 1500
$Comp
L Device:R R1
U 1 1 5CA24C4D
P 3700 1750
F 0 "R1" H 3770 1796 50  0000 L CNN
F 1 "499k" H 3770 1705 50  0000 L CNN
F 2 "IPC_RES:RESC100X50X40L25N" V 3630 1750 50  0001 C CNN
F 3 "~" H 3700 1750 50  0001 C CNN
	1    3700 1750
	1    0    0    -1  
$EndComp
Wire Wire Line
	3700 1600 3700 1500
$Comp
L power:GND #PWR09
U 1 1 5CA2D416
P 4400 2100
F 0 "#PWR09" H 4400 1850 50  0001 C CNN
F 1 "GND" H 4405 1927 50  0000 C CNN
F 2 "" H 4400 2100 50  0001 C CNN
F 3 "" H 4400 2100 50  0001 C CNN
	1    4400 2100
	1    0    0    -1  
$EndComp
Wire Wire Line
	3700 1900 3700 2000
Wire Wire Line
	4400 2000 4400 2100
Wire Wire Line
	4400 1800 4400 2000
Connection ~ 4400 2000
Wire Wire Line
	3900 1100 4400 1100
Wire Wire Line
	3700 2000 4400 2000
$Comp
L power:GND #PWR015
U 1 1 5CA8517F
P 2700 3100
F 0 "#PWR015" H 2700 2850 50  0001 C CNN
F 1 "GND" H 2705 2927 50  0000 C CNN
F 2 "" H 2700 3100 50  0001 C CNN
F 3 "" H 2700 3100 50  0001 C CNN
	1    2700 3100
	1    0    0    -1  
$EndComp
$Comp
L power:+VSW #PWR014
U 1 1 5CA85268
P 2700 2700
F 0 "#PWR014" H 2700 2550 50  0001 C CNN
F 1 "+VSW" H 2715 2873 50  0000 C CNN
F 2 "" H 2700 2700 50  0001 C CNN
F 3 "" H 2700 2700 50  0001 C CNN
	1    2700 2700
	1    0    0    -1  
$EndComp
Wire Wire Line
	2800 2800 2700 2800
Wire Wire Line
	2700 2800 2700 2700
Wire Wire Line
	2800 3000 2700 3000
Wire Wire Line
	2700 3000 2700 3100
$Comp
L power:+VSW #PWR016
U 1 1 5CA97386
P 4400 2600
F 0 "#PWR016" H 4400 2450 50  0001 C CNN
F 1 "+VSW" H 4415 2773 50  0000 C CNN
F 2 "" H 4400 2600 50  0001 C CNN
F 3 "" H 4400 2600 50  0001 C CNN
	1    4400 2600
	1    0    0    -1  
$EndComp
$Comp
L power:GND #PWR018
U 1 1 5CA9754D
P 5300 4050
F 0 "#PWR018" H 5300 3800 50  0001 C CNN
F 1 "GND" H 5305 3877 50  0000 C CNN
F 2 "" H 5300 4050 50  0001 C CNN
F 3 "" H 5300 4050 50  0001 C CNN
	1    5300 4050
	1    0    0    -1  
$EndComp
Wire Wire Line
	5900 3350 6000 3350
Wire Wire Line
	6000 3350 6000 3850
Wire Wire Line
	6000 3850 4800 3850
Wire Wire Line
	4800 3850 4800 3500
Wire Wire Line
	4800 3500 4900 3500
Wire Wire Line
	5300 3950 5300 3750
$Comp
L Device:R R2
U 1 1 5CAB5092
P 4400 2950
F 0 "R2" H 4470 2996 50  0000 L CNN
F 1 "77k7" H 4470 2905 50  0000 L CNN
F 2 "IPC_RES:RESC100X50X40L20N" V 4330 2950 50  0001 C CNN
F 3 "~" H 4400 2950 50  0001 C CNN
	1    4400 2950
	1    0    0    -1  
$EndComp
$Comp
L Device:R R3
U 1 1 5CAB51C4
P 4400 3450
F 0 "R3" H 4470 3496 50  0000 L CNN
F 1 "100k" H 4470 3405 50  0000 L CNN
F 2 "IPC_RES:RESC100X50X40L25N" V 4330 3450 50  0001 C CNN
F 3 "~" H 4400 3450 50  0001 C CNN
	1    4400 3450
	1    0    0    -1  
$EndComp
Wire Wire Line
	4400 2600 4400 2700
Wire Wire Line
	5300 2700 4400 2700
Wire Wire Line
	5300 2700 5300 2950
Connection ~ 4400 2700
Wire Wire Line
	4400 2700 4400 2800
Wire Wire Line
	4900 3200 4400 3200
Wire Wire Line
	4400 3200 4400 3100
Wire Wire Line
	4400 3300 4400 3200
Connection ~ 4400 3200
$Comp
L TI-Amplifier:TLV3501DBV U3
U 1 1 5CAE8DA6
P 7700 3500
F 0 "U3" H 7750 3650 60  0000 L BNN
F 1 "TLV3501DBV" H 7750 3350 60  0000 L TNN
F 2 "IPC_SOT:SOT23-6P95_280X145L45X37N" H 7700 3500 60  0001 C CNN
F 3 "" H 7700 3500 60  0001 C CNN
	1    7700 3500
	1    0    0    -1  
$EndComp
$Comp
L Device:R R4
U 1 1 5CAF3A48
P 6250 3350
F 0 "R4" V 6043 3350 50  0000 C CNN
F 1 "10k" V 6134 3350 50  0000 C CNN
F 2 "IPC_RES:RESC100X50X40L25N" V 6180 3350 50  0001 C CNN
F 3 "~" H 6250 3350 50  0001 C CNN
	1    6250 3350
	0    1    1    0   
$EndComp
$Comp
L power:+1V8 #PWR020
U 1 1 5CAF3EBD
P 7100 2600
F 0 "#PWR020" H 7100 2450 50  0001 C CNN
F 1 "+1V8" H 7115 2773 50  0000 C CNN
F 2 "" H 7100 2600 50  0001 C CNN
F 3 "" H 7100 2600 50  0001 C CNN
	1    7100 2600
	1    0    0    -1  
$EndComp
$Comp
L Device:Jumper JP1
U 1 1 5CAF410A
P 5700 2700
F 0 "JP1" H 5700 2964 50  0000 C CNN
F 1 "Jumper" H 5700 2873 50  0000 C CNN
F 2 "SolderBridge:JUMP100X50WOP" H 5700 2700 50  0001 C CNN
F 3 "~" H 5700 2700 50  0001 C CNN
	1    5700 2700
	1    0    0    -1  
$EndComp
$Comp
L Device:Jumper JP2
U 1 1 5CAF4494
P 6500 3750
F 0 "JP2" V 6454 3877 50  0000 L CNN
F 1 "Jumper" V 6545 3877 50  0000 L CNN
F 2 "SolderBridge:JUMP100X50WOP" H 6500 3750 50  0001 C CNN
F 3 "~" H 6500 3750 50  0001 C CNN
	1    6500 3750
	0    1    1    0   
$EndComp
Wire Wire Line
	7200 3650 7100 3650
Wire Wire Line
	7100 3650 7100 2600
Wire Wire Line
	7600 3100 7600 2700
Wire Wire Line
	5400 2700 5300 2700
Connection ~ 5300 2700
$Comp
L power:+VSW #PWR021
U 1 1 5CB1FCE2
P 7700 2600
F 0 "#PWR021" H 7700 2450 50  0001 C CNN
F 1 "+VSW" H 7715 2773 50  0000 C CNN
F 2 "" H 7700 2600 50  0001 C CNN
F 3 "" H 7700 2600 50  0001 C CNN
	1    7700 2600
	1    0    0    -1  
$EndComp
Wire Wire Line
	7700 3100 7700 2600
$Comp
L Device:R R5
U 1 1 5CB2B481
P 8050 4000
F 0 "R5" V 7843 4000 50  0000 C CNN
F 1 "499k" V 7934 4000 50  0000 C CNN
F 2 "IPC_RES:RESC100X50X40L25N" V 7980 4000 50  0001 C CNN
F 3 "~" H 8050 4000 50  0001 C CNN
	1    8050 4000
	0    1    1    0   
$EndComp
Wire Wire Line
	8200 3500 8400 3500
Wire Wire Line
	8400 3500 8400 4000
Wire Wire Line
	8400 4000 8200 4000
Wire Wire Line
	7900 4000 7000 4000
Wire Wire Line
	7000 4000 7000 3350
Wire Wire Line
	7000 3350 7200 3350
Connection ~ 7000 3350
Wire Wire Line
	6000 2700 6500 2700
Wire Wire Line
	6400 3350 7000 3350
Wire Wire Line
	6500 3450 6500 2700
Connection ~ 6500 2700
Wire Wire Line
	6500 2700 7600 2700
Wire Wire Line
	6100 3350 6000 3350
Connection ~ 6000 3350
$Comp
L power:GND #PWR019
U 1 1 5CB8BE11
P 6500 4150
F 0 "#PWR019" H 6500 3900 50  0001 C CNN
F 1 "GND" H 6505 3977 50  0000 C CNN
F 2 "" H 6500 4150 50  0001 C CNN
F 3 "" H 6500 4150 50  0001 C CNN
	1    6500 4150
	1    0    0    -1  
$EndComp
$Comp
L power:GND #PWR022
U 1 1 5CB8BE72
P 7700 4150
F 0 "#PWR022" H 7700 3900 50  0001 C CNN
F 1 "GND" H 7705 3977 50  0000 C CNN
F 2 "" H 7700 4150 50  0001 C CNN
F 3 "" H 7700 4150 50  0001 C CNN
	1    7700 4150
	1    0    0    -1  
$EndComp
Wire Wire Line
	7700 4150 7700 3900
Wire Wire Line
	6500 4150 6500 4050
$Comp
L power:GND #PWR017
U 1 1 5CBA5125
P 4400 3700
F 0 "#PWR017" H 4400 3450 50  0001 C CNN
F 1 "GND" H 4405 3527 50  0000 C CNN
F 2 "" H 4400 3700 50  0001 C CNN
F 3 "" H 4400 3700 50  0001 C CNN
	1    4400 3700
	1    0    0    -1  
$EndComp
Wire Wire Line
	4400 3700 4400 3600
Text Label 8300 3500 0    50   ~ 0
PEN
Text Label 2000 1400 0    50   ~ 0
13_3V
Text Label 2000 1500 0    50   ~ 0
12_3V
Text Label 2000 1600 0    50   ~ 0
11_3V
Text Label 2000 1700 0    50   ~ 0
10_3V
Text Label 2000 1800 0    50   ~ 0
9_3V
Text Label 2000 1900 0    50   ~ 0
6_3V
Text Label 2000 2000 0    50   ~ 0
5_3V
Text Label 2000 2100 0    50   ~ 0
SCL_3V
Text Label 2000 2200 0    50   ~ 0
SDA_3V
Text Label 2000 3000 0    50   ~ 0
A0_3V
Text Label 2000 3100 0    50   ~ 0
A1_3V
Text Label 2000 3200 0    50   ~ 0
A2_3V
Text Label 2000 3300 0    50   ~ 0
A3_3V
Text Label 2000 3400 0    50   ~ 0
A4_3V
Text Label 2000 3500 0    50   ~ 0
A5_3V
Text Label 2000 3600 0    50   ~ 0
SCK_3V
Text Label 2000 3700 0    50   ~ 0
MOSI_3V
Text Label 2000 3800 0    50   ~ 0
MISO_3V
Text Label 2000 3900 0    50   ~ 0
RX_3V
Text Label 2000 4000 0    50   ~ 0
TX_3V
Text Label 14500 7200 2    50   ~ 0
RST
Text Label 2000 2800 0    50   ~ 0
ARF
Wire Wire Line
	2000 4000 1000 4000
Wire Wire Line
	1000 3900 2000 3900
Wire Wire Line
	2000 3800 1000 3800
Wire Wire Line
	1000 3700 2000 3700
Wire Wire Line
	2000 3600 1000 3600
Wire Wire Line
	1000 3500 2000 3500
Wire Wire Line
	2000 3400 1000 3400
Wire Wire Line
	1000 3300 2000 3300
Wire Wire Line
	2000 3200 1000 3200
Wire Wire Line
	1000 3100 2000 3100
Wire Wire Line
	2000 3000 1000 3000
Wire Wire Line
	1000 2800 2000 2800
Wire Wire Line
	2000 2600 1000 2600
Wire Wire Line
	2000 2200 1000 2200
Wire Wire Line
	1000 2100 2000 2100
Wire Wire Line
	2000 2000 1000 2000
Wire Wire Line
	1000 1900 2000 1900
Wire Wire Line
	2000 1800 1000 1800
Wire Wire Line
	1000 1700 2000 1700
Wire Wire Line
	2000 1600 1000 1600
Wire Wire Line
	1000 1500 2000 1500
Wire Wire Line
	2000 1400 1000 1400
Text Label 14500 6100 2    50   ~ 0
13
Text Label 14500 6000 2    50   ~ 0
12
Text Label 14500 5900 2    50   ~ 0
11
Text Label 14500 5800 2    50   ~ 0
10
Text Label 14500 5700 2    50   ~ 0
9
Text Label 14500 5600 2    50   ~ 0
6
Text Label 14500 5500 2    50   ~ 0
5
Text Label 14500 5400 2    50   ~ 0
SCL
Text Label 14500 5300 2    50   ~ 0
SDA
Text Label 14500 7600 2    50   ~ 0
A0
Text Label 14500 7700 2    50   ~ 0
A1
Text Label 14500 7800 2    50   ~ 0
A2
Text Label 14500 7900 2    50   ~ 0
A3
Text Label 14500 8000 2    50   ~ 0
A4
Text Label 14500 8100 2    50   ~ 0
A5
Text Label 14500 8200 2    50   ~ 0
SCK
Text Label 14500 8300 2    50   ~ 0
MOSI
Text Label 14500 8400 2    50   ~ 0
MISO
Text Label 14500 8500 2    50   ~ 0
RX
Text Label 14500 8600 2    50   ~ 0
TX
Text Label 2000 2600 0    50   ~ 0
RST
Text Label 14500 7400 2    50   ~ 0
ARF
Wire Wire Line
	15700 7300 14600 7300
Wire Wire Line
	14600 7300 14600 6300
Connection ~ 14600 6300
Wire Wire Line
	14500 7200 15700 7200
Wire Wire Line
	15700 7400 14500 7400
Wire Wire Line
	14500 6100 15700 6100
Wire Wire Line
	15700 6000 14500 6000
Wire Wire Line
	14500 5900 15700 5900
Wire Wire Line
	15700 5800 14500 5800
Wire Wire Line
	14500 5700 15700 5700
Wire Wire Line
	15700 5600 14500 5600
Wire Wire Line
	14500 5500 15700 5500
Wire Wire Line
	15700 5400 14500 5400
Wire Wire Line
	14500 5300 15700 5300
Wire Wire Line
	14500 7600 15700 7600
Wire Wire Line
	15700 7700 14500 7700
Wire Wire Line
	14500 7800 15700 7800
Wire Wire Line
	15700 7900 14500 7900
Wire Wire Line
	14500 8000 15700 8000
Wire Wire Line
	15700 8100 14500 8100
Wire Wire Line
	14500 8200 15700 8200
Wire Wire Line
	15700 8300 14500 8300
Wire Wire Line
	14500 8400 15700 8400
Wire Wire Line
	15700 8500 14500 8500
Wire Wire Line
	14500 8600 15700 8600
$Comp
L Device:L L1
U 1 1 5D0640C5
P 2500 5500
F 0 "L1" V 2690 5500 50  0000 C CNN
F 1 "1u5" V 2599 5500 50  0000 C CNN
F 2 "IPC_IND:INDM365X300X200L80X50N" H 2500 5500 50  0001 C CNN
F 3 "~" H 2500 5500 50  0001 C CNN
	1    2500 5500
	0    -1   -1   0   
$EndComp
Wire Wire Line
	3100 6000 3200 6000
Wire Wire Line
	3200 6000 3200 5900
Wire Wire Line
	3200 5500 2650 5500
Wire Wire Line
	3100 5900 3200 5900
Connection ~ 3200 5900
Wire Wire Line
	3200 5900 3200 5500
Wire Wire Line
	1900 6000 1800 6000
Wire Wire Line
	1800 6000 1800 5900
Wire Wire Line
	1800 5500 2350 5500
Wire Wire Line
	1900 5900 1800 5900
Connection ~ 1800 5900
Wire Wire Line
	1800 5900 1800 5500
$Comp
L power:+VSW #PWR023
U 1 1 5D0BB559
P 1000 6100
F 0 "#PWR023" H 1000 5950 50  0001 C CNN
F 1 "+VSW" H 1015 6273 50  0000 C CNN
F 2 "" H 1000 6100 50  0001 C CNN
F 3 "" H 1000 6100 50  0001 C CNN
	1    1000 6100
	1    0    0    -1  
$EndComp
Wire Wire Line
	1900 6700 1800 6700
Wire Wire Line
	1800 6700 1800 6900
Wire Wire Line
	1800 6900 1900 6900
$Comp
L Device:C C3
U 1 1 5D0D2C45
P 1400 6750
F 0 "C3" H 1515 6796 50  0000 L CNN
F 1 "0u1" H 1515 6705 50  0000 L CNN
F 2 "IPC_CAP:CAPC100X50X55L32N" H 1438 6600 50  0001 C CNN
F 3 "~" H 1400 6750 50  0001 C CNN
	1    1400 6750
	1    0    0    -1  
$EndComp
$Comp
L Device:C C2
U 1 1 5D0D3111
P 1000 6750
F 0 "C2" H 1115 6796 50  0000 L CNN
F 1 "10u" H 1115 6705 50  0000 L CNN
F 2 "IPC_CAP:CAPC160X80X95L37N" H 1038 6600 50  0001 C CNN
F 3 "~" H 1000 6750 50  0001 C CNN
	1    1000 6750
	1    0    0    -1  
$EndComp
Wire Wire Line
	1000 6900 1000 7000
Wire Wire Line
	1000 7000 1400 7000
Wire Wire Line
	1800 7000 1800 6900
Connection ~ 1800 6900
Wire Wire Line
	1400 6900 1400 7000
Connection ~ 1400 7000
Wire Wire Line
	1400 7000 1800 7000
Wire Wire Line
	1900 6400 1400 6400
Wire Wire Line
	1400 6400 1400 6600
Wire Wire Line
	1900 6300 1800 6300
Wire Wire Line
	1800 6300 1800 6200
Wire Wire Line
	1800 6200 1900 6200
Wire Wire Line
	1800 6200 1000 6200
Wire Wire Line
	1000 6200 1000 6600
Connection ~ 1800 6200
Wire Wire Line
	1000 6100 1000 6200
Connection ~ 1000 6200
$Comp
L power:GND #PWR024
U 1 1 5D17DA4E
P 1800 7100
F 0 "#PWR024" H 1800 6850 50  0001 C CNN
F 1 "GND" H 1805 6927 50  0000 C CNN
F 2 "" H 1800 7100 50  0001 C CNN
F 3 "" H 1800 7100 50  0001 C CNN
	1    1800 7100
	1    0    0    -1  
$EndComp
Wire Wire Line
	1800 7100 1800 7000
Connection ~ 1800 7000
Text Label 900  6500 2    50   ~ 0
PEN
Wire Wire Line
	900  6500 1900 6500
Wire Wire Line
	3100 6300 3200 6300
Wire Wire Line
	3200 6300 3200 6200
Wire Wire Line
	3200 6200 3100 6200
$Comp
L Device:R R6
U 1 1 5D1CBC7C
P 4400 6450
F 0 "R6" H 4470 6496 50  0000 L CNN
F 1 "2M4" H 4470 6405 50  0000 L CNN
F 2 "IPC_RES:RESC100X50X26L25N" V 4330 6450 50  0001 C CNN
F 3 "~" H 4400 6450 50  0001 C CNN
	1    4400 6450
	1    0    0    -1  
$EndComp
$Comp
L Device:R R7
U 1 1 5D1E6A9D
P 4400 6950
F 0 "R7" H 4470 6996 50  0000 L CNN
F 1 "430k" H 4470 6905 50  0000 L CNN
F 2 "IPC_RES:RESC100X50X40L25N" V 4330 6950 50  0001 C CNN
F 3 "~" H 4400 6950 50  0001 C CNN
	1    4400 6950
	1    0    0    -1  
$EndComp
$Comp
L Device:C C4
U 1 1 5D21D2C0
P 3600 6950
F 0 "C4" H 3715 6996 50  0000 L CNN
F 1 "10u" H 3715 6905 50  0000 L CNN
F 2 "IPC_CAP:CAPC160X80X95L37N" H 3638 6800 50  0001 C CNN
F 3 "~" H 3600 6950 50  0001 C CNN
	1    3600 6950
	1    0    0    -1  
$EndComp
Wire Wire Line
	4400 6600 4400 6700
$Comp
L Device:C C5
U 1 1 5D237BFD
P 4000 6950
F 0 "C5" H 4115 6996 50  0000 L CNN
F 1 "47u" H 4115 6905 50  0000 L CNN
F 2 "IPC_CAP:CAPC200X125X145L45N" H 4038 6800 50  0001 C CNN
F 3 "~" H 4000 6950 50  0001 C CNN
	1    4000 6950
	1    0    0    -1  
$EndComp
Wire Wire Line
	4400 6300 4400 6200
Wire Wire Line
	4400 6200 4000 6200
Wire Wire Line
	4400 6700 4200 6700
Connection ~ 4400 6700
Wire Wire Line
	4400 6700 4400 6800
Wire Wire Line
	3600 6800 3600 6200
Wire Wire Line
	4000 6800 4000 6200
Connection ~ 4000 6200
Wire Wire Line
	4000 6200 3600 6200
Wire Wire Line
	4400 7100 4400 7200
Wire Wire Line
	3200 6900 3100 6900
Wire Wire Line
	4200 6700 4200 6600
Wire Wire Line
	3100 6600 4200 6600
Wire Wire Line
	3200 6900 3200 7200
Wire Wire Line
	3200 7200 3600 7200
Wire Wire Line
	4000 7100 4000 7200
Connection ~ 4000 7200
Wire Wire Line
	4000 7200 4400 7200
Wire Wire Line
	3600 7100 3600 7200
Connection ~ 3600 7200
Wire Wire Line
	3600 7200 4000 7200
Wire Wire Line
	3600 6200 3200 6200
Connection ~ 3600 6200
Connection ~ 3200 6200
$Comp
L power:GND #PWR025
U 1 1 5D38A5E0
P 3200 7300
F 0 "#PWR025" H 3200 7050 50  0001 C CNN
F 1 "GND" H 3205 7127 50  0000 C CNN
F 2 "" H 3200 7300 50  0001 C CNN
F 3 "" H 3200 7300 50  0001 C CNN
	1    3200 7300
	1    0    0    -1  
$EndComp
Wire Wire Line
	3200 7200 3200 7300
Connection ~ 3200 7200
$Comp
L power:+3.3V #PWR026
U 1 1 5D3A84E3
P 4400 6100
F 0 "#PWR026" H 4400 5950 50  0001 C CNN
F 1 "+3.3V" H 4415 6273 50  0000 C CNN
F 2 "" H 4400 6100 50  0001 C CNN
F 3 "" H 4400 6100 50  0001 C CNN
	1    4400 6100
	1    0    0    -1  
$EndComp
Wire Wire Line
	4400 6100 4400 6200
Connection ~ 4400 6200
$Comp
L Device:L L2
U 1 1 5D3E47BA
P 2450 8000
F 0 "L2" V 2640 8000 50  0000 C CNN
F 1 "1u" V 2549 8000 50  0000 C CNN
F 2 "IPC_IND:INDM400X400X210L82X325N" H 2450 8000 50  0001 C CNN
F 3 "~" H 2450 8000 50  0001 C CNN
	1    2450 8000
	0    -1   -1   0   
$EndComp
$Comp
L Device:C C10
U 1 1 5D3E49AF
P 2950 8500
F 0 "C10" V 2800 8500 50  0000 C CNN
F 1 "0u1" V 3100 8500 50  0000 C CNN
F 2 "IPC_CAP:CAPC100X50X55L32N" H 2988 8350 50  0001 C CNN
F 3 "~" H 2950 8500 50  0001 C CNN
	1    2950 8500
	0    1    1    0   
$EndComp
$Comp
L Device:R R9
U 1 1 5D3E4B01
P 3250 8700
F 0 "R9" V 3150 8600 50  0000 C CNN
F 1 "57k6" V 3150 8800 50  0000 C CNN
F 2 "IPC_RES:RESC100X50X40L25N" V 3180 8700 50  0001 C CNN
F 3 "~" H 3250 8700 50  0001 C CNN
	1    3250 8700
	0    1    1    0   
$EndComp
$Comp
L Device:R R8
U 1 1 5D3E4BF7
P 2600 9100
F 0 "R8" V 2500 9000 50  0000 C CNN
F 1 "DNI" V 2500 9200 50  0000 C CNN
F 2 "IPC_RES:RESC100X50X40L25N" V 2530 9100 50  0001 C CNN
F 3 "~" H 2600 9100 50  0001 C CNN
	1    2600 9100
	0    1    1    0   
$EndComp
Wire Wire Line
	3500 8700 3400 8700
Wire Wire Line
	3500 8500 3100 8500
Wire Wire Line
	3100 8700 2700 8700
Wire Wire Line
	2700 8700 2700 8500
Wire Wire Line
	2700 8500 2800 8500
Wire Wire Line
	3500 8300 2700 8300
Wire Wire Line
	2700 8300 2700 8500
Connection ~ 2700 8500
Wire Wire Line
	3500 8200 2700 8200
Wire Wire Line
	2700 8200 2700 8300
Connection ~ 2700 8300
Wire Wire Line
	3500 8100 2700 8100
Wire Wire Line
	2700 8100 2700 8200
Connection ~ 2700 8200
Wire Wire Line
	3500 8000 2700 8000
Wire Wire Line
	2700 8000 2700 8100
Connection ~ 2700 8100
Wire Wire Line
	2600 8000 2700 8000
Connection ~ 2700 8000
Wire Wire Line
	3500 8900 2200 8900
Wire Wire Line
	2200 8900 2200 8000
Wire Wire Line
	2200 8000 2300 8000
Wire Wire Line
	3500 9100 2750 9100
Wire Wire Line
	2450 9100 2200 9100
Wire Wire Line
	2200 9100 2200 8900
Connection ~ 2200 8900
$Comp
L Device:C C11
U 1 1 5D585E4B
P 3000 9450
F 0 "C11" H 3115 9496 50  0000 L CNN
F 1 "4u7" H 3115 9405 50  0000 L CNN
F 2 "IPC_CAP:CAPC100X50X70L25N" H 3038 9300 50  0001 C CNN
F 3 "~" H 3000 9450 50  0001 C CNN
	1    3000 9450
	1    0    0    -1  
$EndComp
Wire Wire Line
	3000 9300 3000 9000
Wire Wire Line
	3000 9000 3500 9000
Wire Wire Line
	3000 9600 3000 9700
Wire Wire Line
	3000 9700 3400 9700
Wire Wire Line
	3400 9700 3400 9400
Wire Wire Line
	3400 9400 3500 9400
$Comp
L Device:C C9
U 1 1 5D5CD56C
P 2200 9450
F 0 "C9" H 2315 9496 50  0000 L CNN
F 1 "0u1" H 2315 9405 50  0000 L CNN
F 2 "IPC_CAP:CAPC100X50X55L32N" H 2238 9300 50  0001 C CNN
F 3 "~" H 2200 9450 50  0001 C CNN
	1    2200 9450
	1    0    0    -1  
$EndComp
$Comp
L Device:C C8
U 1 1 5D5CD78A
P 1800 9450
F 0 "C8" H 1915 9496 50  0000 L CNN
F 1 "47u" H 1915 9405 50  0000 L CNN
F 2 "IPC_CAP:CAPC200X125X145L45N" H 1838 9300 50  0001 C CNN
F 3 "~" H 1800 9450 50  0001 C CNN
	1    1800 9450
	1    0    0    -1  
$EndComp
$Comp
L Device:C C7
U 1 1 5D5CD81C
P 1400 9450
F 0 "C7" H 1515 9496 50  0000 L CNN
F 1 "47u" H 1515 9405 50  0000 L CNN
F 2 "IPC_CAP:CAPC200X125X145L45N" H 1438 9300 50  0001 C CNN
F 3 "~" H 1400 9450 50  0001 C CNN
	1    1400 9450
	1    0    0    -1  
$EndComp
$Comp
L Device:C C6
U 1 1 5D5F1349
P 1000 9450
F 0 "C6" H 1115 9496 50  0000 L CNN
F 1 "47u" H 1115 9405 50  0000 L CNN
F 2 "IPC_CAP:CAPC200X125X145L45N" H 1038 9300 50  0001 C CNN
F 3 "~" H 1000 9450 50  0001 C CNN
	1    1000 9450
	1    0    0    -1  
$EndComp
Text Label 900  9200 2    50   ~ 0
PEN
Wire Wire Line
	900  9200 3500 9200
Wire Wire Line
	2200 9300 2200 9100
Connection ~ 2200 9100
Wire Wire Line
	1800 9300 1800 8000
Wire Wire Line
	1800 8000 2200 8000
Connection ~ 2200 8000
Wire Wire Line
	1400 9300 1400 8000
Wire Wire Line
	1400 8000 1800 8000
Connection ~ 1800 8000
Wire Wire Line
	1000 9300 1000 8000
Wire Wire Line
	1000 8000 1400 8000
Connection ~ 1400 8000
Wire Wire Line
	1000 9600 1000 9700
Wire Wire Line
	1000 9700 1400 9700
Connection ~ 3000 9700
Wire Wire Line
	1400 9600 1400 9700
Connection ~ 1400 9700
Wire Wire Line
	1400 9700 1800 9700
Wire Wire Line
	1800 9600 1800 9700
Connection ~ 1800 9700
Wire Wire Line
	1800 9700 2200 9700
Wire Wire Line
	2200 9600 2200 9700
Connection ~ 2200 9700
Wire Wire Line
	2200 9700 3000 9700
$Comp
L power:+VSW #PWR027
U 1 1 5D740A9A
P 1000 7900
F 0 "#PWR027" H 1000 7750 50  0001 C CNN
F 1 "+VSW" H 1015 8073 50  0000 C CNN
F 2 "" H 1000 7900 50  0001 C CNN
F 3 "" H 1000 7900 50  0001 C CNN
	1    1000 7900
	1    0    0    -1  
$EndComp
Wire Wire Line
	1000 7900 1000 8000
Connection ~ 1000 8000
Wire Wire Line
	4700 8200 4800 8200
Wire Wire Line
	4800 8200 4800 8100
Wire Wire Line
	4800 8000 4700 8000
Wire Wire Line
	4700 8100 4800 8100
Connection ~ 4800 8100
Wire Wire Line
	4800 8100 4800 8000
$Comp
L power:GND #PWR028
U 1 1 5D7B8D71
P 3400 9800
F 0 "#PWR028" H 3400 9550 50  0001 C CNN
F 1 "GND" H 3405 9627 50  0000 C CNN
F 2 "" H 3400 9800 50  0001 C CNN
F 3 "" H 3400 9800 50  0001 C CNN
	1    3400 9800
	1    0    0    -1  
$EndComp
Wire Wire Line
	3400 9800 3400 9700
Connection ~ 3400 9700
$Comp
L Device:R R12
U 1 1 5D7E1B8D
P 6800 8250
F 0 "R12" H 6870 8296 50  0000 L CNN
F 1 "220k" H 6870 8205 50  0000 L CNN
F 2 "IPC_RES:RESC100X50X40L25N" V 6730 8250 50  0001 C CNN
F 3 "~" H 6800 8250 50  0001 C CNN
	1    6800 8250
	1    0    0    -1  
$EndComp
$Comp
L Device:R R13
U 1 1 5D7E1DBB
P 6800 9750
F 0 "R13" H 6870 9796 50  0000 L CNN
F 1 "69k8" H 6870 9705 50  0000 L CNN
F 2 "IPC_RES:RESC100X50X40L25N" V 6730 9750 50  0001 C CNN
F 3 "~" H 6800 9750 50  0001 C CNN
	1    6800 9750
	1    0    0    -1  
$EndComp
$Comp
L Device:C C15
U 1 1 5D80A8D1
P 7200 9750
F 0 "C15" H 7315 9796 50  0000 L CNN
F 1 "10u" H 7315 9705 50  0000 L CNN
F 2 "IPC_CAP:CAPC160X80X95L37N" H 7238 9600 50  0001 C CNN
F 3 "~" H 7200 9750 50  0001 C CNN
	1    7200 9750
	1    0    0    -1  
$EndComp
$Comp
L Device:C C16
U 1 1 5D80AA89
P 7600 9750
F 0 "C16" H 7715 9796 50  0000 L CNN
F 1 "10u" H 7715 9705 50  0000 L CNN
F 2 "IPC_CAP:CAPC160X80X95L37N" H 7638 9600 50  0001 C CNN
F 3 "~" H 7600 9750 50  0001 C CNN
	1    7600 9750
	1    0    0    -1  
$EndComp
$Comp
L Device:C C17
U 1 1 5D80AB2B
P 8000 9750
F 0 "C17" H 8115 9796 50  0000 L CNN
F 1 "10u" H 8115 9705 50  0000 L CNN
F 2 "IPC_CAP:CAPC160X80X95L37N" H 8038 9600 50  0001 C CNN
F 3 "~" H 8000 9750 50  0001 C CNN
	1    8000 9750
	1    0    0    -1  
$EndComp
$Comp
L Device:C C18
U 1 1 5D80ABC7
P 8400 9750
F 0 "C18" H 8515 9796 50  0000 L CNN
F 1 "10u" H 8515 9705 50  0000 L CNN
F 2 "IPC_CAP:CAPC160X80X95L37N" H 8438 9600 50  0001 C CNN
F 3 "~" H 8400 9750 50  0001 C CNN
	1    8400 9750
	1    0    0    -1  
$EndComp
$Comp
L Device:C C14
U 1 1 5D80AE6D
P 6400 9750
F 0 "C14" H 6515 9796 50  0000 L CNN
F 1 "8n2" H 6515 9705 50  0000 L CNN
F 2 "IPC_CAP:CAPC100X50X55L32N" H 6438 9600 50  0001 C CNN
F 3 "~" H 6400 9750 50  0001 C CNN
	1    6400 9750
	1    0    0    -1  
$EndComp
$Comp
L Device:R R11
U 1 1 5D80AF21
P 6000 9750
F 0 "R11" H 6070 9796 50  0000 L CNN
F 1 "280k" H 6070 9705 50  0000 L CNN
F 2 "IPC_RES:RESC100X50X40L25N" V 5930 9750 50  0001 C CNN
F 3 "~" H 6000 9750 50  0001 C CNN
	1    6000 9750
	1    0    0    -1  
$EndComp
$Comp
L Device:C C13
U 1 1 5D80AFD3
P 5600 9750
F 0 "C13" H 5715 9796 50  0000 L CNN
F 1 "150p" H 5715 9705 50  0000 L CNN
F 2 "IPC_CAP:CAPC100X50X55L22N" H 5638 9600 50  0001 C CNN
F 3 "~" H 5600 9750 50  0001 C CNN
	1    5600 9750
	1    0    0    -1  
$EndComp
$Comp
L Device:C C12
U 1 1 5D85D03E
P 5200 9750
F 0 "C12" H 5315 9796 50  0000 L CNN
F 1 "1n2" H 5315 9705 50  0000 L CNN
F 2 "IPC_CAP:CAPC100X50X55L30N" H 5238 9600 50  0001 C CNN
F 3 "~" H 5200 9750 50  0001 C CNN
	1    5200 9750
	1    0    0    -1  
$EndComp
$Comp
L Device:R R10
U 1 1 5D85D0E4
P 5200 9350
F 0 "R10" H 5270 9396 50  0000 L CNN
F 1 "10k" H 5270 9305 50  0000 L CNN
F 2 "IPC_RES:RESC100X50X40L25N" V 5130 9350 50  0001 C CNN
F 3 "~" H 5200 9350 50  0001 C CNN
	1    5200 9350
	1    0    0    -1  
$EndComp
Wire Wire Line
	4700 9400 4800 9400
Wire Wire Line
	4800 9400 4800 10000
Wire Wire Line
	4800 10000 5200 10000
Wire Wire Line
	8400 10000 8400 9900
Wire Wire Line
	8000 9900 8000 10000
Connection ~ 8000 10000
Wire Wire Line
	8000 10000 8400 10000
Wire Wire Line
	7600 9900 7600 10000
Connection ~ 7600 10000
Wire Wire Line
	7600 10000 8000 10000
Wire Wire Line
	7200 9900 7200 10000
Connection ~ 7200 10000
Wire Wire Line
	7200 10000 7600 10000
Wire Wire Line
	6800 9900 6800 10000
Connection ~ 6800 10000
Wire Wire Line
	6800 10000 7200 10000
Wire Wire Line
	6400 9900 6400 10000
Connection ~ 6400 10000
Wire Wire Line
	6400 10000 6800 10000
Wire Wire Line
	6000 9900 6000 10000
Connection ~ 6000 10000
Wire Wire Line
	6000 10000 6400 10000
Wire Wire Line
	5600 9900 5600 10000
Connection ~ 5600 10000
Wire Wire Line
	5600 10000 6000 10000
Wire Wire Line
	5200 9900 5200 10000
Connection ~ 5200 10000
Wire Wire Line
	5200 10000 5600 10000
Wire Wire Line
	5200 9600 5200 9500
Wire Wire Line
	5200 9200 5200 9100
Wire Wire Line
	5200 9100 4700 9100
Wire Wire Line
	5600 9600 5600 9100
Wire Wire Line
	5600 9100 5200 9100
Connection ~ 5200 9100
Wire Wire Line
	6000 9600 6000 8900
Wire Wire Line
	6000 8900 4700 8900
Wire Wire Line
	6400 9600 6400 8800
Wire Wire Line
	6400 8800 4700 8800
Wire Wire Line
	4700 8600 6800 8600
Wire Wire Line
	6800 8600 6800 8400
Wire Wire Line
	6800 9600 6800 8600
Connection ~ 6800 8600
Wire Wire Line
	6800 8100 6800 8000
Wire Wire Line
	6800 8000 4800 8000
Connection ~ 4800 8000
Wire Wire Line
	7200 9600 7200 8000
Wire Wire Line
	7200 8000 6800 8000
Connection ~ 6800 8000
Wire Wire Line
	7600 9600 7600 8000
Wire Wire Line
	7600 8000 7200 8000
Connection ~ 7200 8000
Wire Wire Line
	8000 9600 8000 8000
Wire Wire Line
	8000 8000 7600 8000
Connection ~ 7600 8000
Wire Wire Line
	8400 9600 8400 8000
Wire Wire Line
	8400 8000 8000 8000
Connection ~ 8000 8000
$Comp
L power:+5V #PWR030
U 1 1 5DC3C530
P 8400 7900
F 0 "#PWR030" H 8400 7750 50  0001 C CNN
F 1 "+5V" H 8415 8073 50  0000 C CNN
F 2 "" H 8400 7900 50  0001 C CNN
F 3 "" H 8400 7900 50  0001 C CNN
	1    8400 7900
	1    0    0    -1  
$EndComp
Wire Wire Line
	8400 7900 8400 8000
Connection ~ 8400 8000
$Comp
L power:GND #PWR029
U 1 1 5DC6DF09
P 4800 10100
F 0 "#PWR029" H 4800 9850 50  0001 C CNN
F 1 "GND" H 4805 9927 50  0000 C CNN
F 2 "" H 4800 10100 50  0001 C CNN
F 3 "" H 4800 10100 50  0001 C CNN
	1    4800 10100
	1    0    0    -1  
$EndComp
Wire Wire Line
	4800 10100 4800 10000
Connection ~ 4800 10000
Text Label 11100 6100 2    50   ~ 0
A0_3V
Text Label 11100 6200 2    50   ~ 0
A1_3V
Text Label 11100 6300 2    50   ~ 0
A2_3V
Text Label 11100 6400 2    50   ~ 0
A3_3V
Text Label 11100 6500 2    50   ~ 0
A4_3V
Text Label 11100 6600 2    50   ~ 0
A5_3V
Text Label 11100 6700 2    50   ~ 0
SCK_3V
Text Label 11100 6800 2    50   ~ 0
MOSI_3V
Text Label 11100 4700 2    50   ~ 0
MISO_3V
Text Label 11100 7500 2    50   ~ 0
RX_3V
Text Label 11100 7600 2    50   ~ 0
TX_3V
Text Label 11100 4900 2    50   ~ 0
12_3V
Text Label 11100 5000 2    50   ~ 0
11_3V
Text Label 11100 5100 2    50   ~ 0
10_3V
Text Label 11100 5200 2    50   ~ 0
9_3V
Text Label 11100 5300 2    50   ~ 0
6_3V
Text Label 11100 5400 2    50   ~ 0
5_3V
Text Label 11100 8500 2    50   ~ 0
SCL_3V
Text Label 11100 8600 2    50   ~ 0
SDA_3V
$Comp
L power:+3.3V #PWR035
U 1 1 5DDFFC55
P 11200 4500
F 0 "#PWR035" H 11200 4350 50  0001 C CNN
F 1 "+3.3V" H 11215 4673 50  0000 C CNN
F 2 "" H 11200 4500 50  0001 C CNN
F 3 "" H 11200 4500 50  0001 C CNN
	1    11200 4500
	1    0    0    -1  
$EndComp
$Comp
L power:GND #PWR036
U 1 1 5DE0014D
P 12500 8800
F 0 "#PWR036" H 12500 8550 50  0001 C CNN
F 1 "GND" H 12505 8627 50  0000 C CNN
F 2 "" H 12500 8800 50  0001 C CNN
F 3 "" H 12500 8800 50  0001 C CNN
	1    12500 8800
	1    0    0    -1  
$EndComp
Wire Wire Line
	12500 8800 12500 8700
Wire Wire Line
	12500 5500 12400 5500
Wire Wire Line
	12400 8700 12500 8700
Connection ~ 12500 8700
Wire Wire Line
	12500 8700 12500 7900
Wire Wire Line
	12400 6900 12500 6900
Wire Wire Line
	12500 6900 12500 5500
$Comp
L power:+5V #PWR037
U 1 1 5DECABAA
P 12600 4500
F 0 "#PWR037" H 12600 4350 50  0001 C CNN
F 1 "+5V" H 12615 4673 50  0000 C CNN
F 2 "" H 12600 4500 50  0001 C CNN
F 3 "" H 12600 4500 50  0001 C CNN
	1    12600 4500
	1    0    0    -1  
$EndComp
Wire Wire Line
	12600 4500 12600 4600
Wire Wire Line
	12600 8400 12400 8400
Wire Wire Line
	12400 7400 12600 7400
Wire Wire Line
	12400 6000 12600 6000
Wire Wire Line
	12400 4600 12600 4600
Connection ~ 12600 4600
Wire Wire Line
	12600 4600 12600 6000
Wire Wire Line
	11200 8700 11200 8400
Wire Wire Line
	11200 8700 11400 8700
Wire Wire Line
	11400 4600 11200 4600
Connection ~ 11200 4600
Wire Wire Line
	11200 4600 11200 4500
Wire Wire Line
	11400 5500 11200 5500
Connection ~ 11200 5500
Wire Wire Line
	11200 5500 11200 4600
Wire Wire Line
	11400 6000 11200 6000
Connection ~ 11200 6000
Wire Wire Line
	11200 6000 11200 5500
Wire Wire Line
	11400 6900 11200 6900
Wire Wire Line
	11200 6900 11200 6000
Wire Wire Line
	11400 7400 11200 7400
Wire Wire Line
	11400 8400 11200 8400
Wire Wire Line
	11400 8600 11100 8600
Wire Wire Line
	11400 8500 11100 8500
Wire Wire Line
	11100 7600 11400 7600
Wire Wire Line
	11400 7500 11100 7500
Text Label 12700 4900 0    50   ~ 0
12_5V
Text Label 12700 5000 0    50   ~ 0
11_5V
Text Label 12700 5100 0    50   ~ 0
10_5V
Text Label 12700 5200 0    50   ~ 0
9_5V
Text Label 12700 5300 0    50   ~ 0
6_5V
Text Label 12700 5400 0    50   ~ 0
5_5V
Text Label 12700 6100 0    50   ~ 0
A0_5V
Text Label 12700 6200 0    50   ~ 0
A1_5V
Text Label 12700 6300 0    50   ~ 0
A2_5V
Text Label 12700 6400 0    50   ~ 0
A3_5V
Text Label 12700 6500 0    50   ~ 0
A4_5V
Text Label 12700 6600 0    50   ~ 0
A5_5V
Text Label 12700 6700 0    50   ~ 0
SCK_5V
Text Label 12700 6800 0    50   ~ 0
MOSI_5V
Text Label 12700 4700 0    50   ~ 0
MISO_5V
Text Label 12700 7500 0    50   ~ 0
RX_5V
Text Label 12700 7600 0    50   ~ 0
TX_5V
Text Label 12700 8500 0    50   ~ 0
SCL_5V
Text Label 12700 8600 0    50   ~ 0
SDA_5V
Wire Wire Line
	12700 8600 12400 8600
Wire Wire Line
	12400 8500 12700 8500
Wire Wire Line
	12700 7600 12400 7600
Wire Wire Line
	12400 7500 12700 7500
$Comp
L Transistor_FET_Generic:Q_PMOS_DDGSDD Q2
U 1 1 5ED3FB7F
P 5500 6300
F 0 "Q2" H 5706 6346 50  0000 L CNN
F 1 "AO6405" H 5706 6255 50  0000 L CNN
F 2 "IPC_SOT:SOT23-6P95_280X125L45X40N" H 5500 6300 50  0001 C CNN
F 3 "http://aosmd.com/res/data_sheets/ao6405.pdf" H 5500 6300 50  0001 C CNN
	1    5500 6300
	0    1    -1   0   
$EndComp
$Comp
L power:+BATT #PWR034
U 1 1 5ED3FB85
P 8700 6100
F 0 "#PWR034" H 8700 5950 50  0001 C CNN
F 1 "+BATT" H 8715 6273 50  0000 C CNN
F 2 "" H 8700 6100 50  0001 C CNN
F 3 "" H 8700 6100 50  0001 C CNN
	1    8700 6100
	1    0    0    -1  
$EndComp
Wire Wire Line
	5300 6200 5200 6200
Wire Wire Line
	4900 6600 5500 6600
Wire Wire Line
	5500 6600 5500 6500
$Comp
L Device:R R14
U 1 1 5ED3FBAE
P 4900 6850
F 0 "R14" H 4970 6896 50  0000 L CNN
F 1 "499k" H 4970 6805 50  0000 L CNN
F 2 "IPC_RES:RESC100X50X40L25N" V 4830 6850 50  0001 C CNN
F 3 "~" H 4900 6850 50  0001 C CNN
	1    4900 6850
	1    0    0    -1  
$EndComp
$Comp
L power:GND #PWR032
U 1 1 5ED3FBB5
P 4900 7200
F 0 "#PWR032" H 4900 6950 50  0001 C CNN
F 1 "GND" H 4905 7027 50  0000 C CNN
F 2 "" H 4900 7200 50  0001 C CNN
F 3 "" H 4900 7200 50  0001 C CNN
	1    4900 7200
	1    0    0    -1  
$EndComp
$Comp
L Device:C C19
U 1 1 5ED87F6B
P 5800 6850
F 0 "C19" H 5915 6896 50  0000 L CNN
F 1 "1n" H 5915 6805 50  0000 L CNN
F 2 "IPC_CAP:CAPC100X50X55L30N" H 5838 6700 50  0001 C CNN
F 3 "~" H 5800 6850 50  0001 C CNN
	1    5800 6850
	1    0    0    -1  
$EndComp
Wire Wire Line
	5800 7000 5800 7100
Wire Wire Line
	5800 7100 4900 7100
Wire Wire Line
	4900 7100 4900 7200
Wire Wire Line
	4900 7000 4900 7100
Connection ~ 4900 7100
Wire Wire Line
	4900 6700 4900 6600
Wire Wire Line
	5800 6700 5800 6200
Wire Wire Line
	5800 6200 5700 6200
$Comp
L power:VBUS #PWR031
U 1 1 5EEA13AF
P 4900 6100
F 0 "#PWR031" H 4900 5950 50  0001 C CNN
F 1 "VBUS" H 4915 6273 50  0000 C CNN
F 2 "" H 4900 6100 50  0001 C CNN
F 3 "" H 4900 6100 50  0001 C CNN
	1    4900 6100
	1    0    0    -1  
$EndComp
$Comp
L power:+VSW #PWR033
U 1 1 5EEA1893
P 5200 6100
F 0 "#PWR033" H 5200 5950 50  0001 C CNN
F 1 "+VSW" H 5215 6273 50  0000 C CNN
F 2 "" H 5200 6100 50  0001 C CNN
F 3 "" H 5200 6100 50  0001 C CNN
	1    5200 6100
	1    0    0    -1  
$EndComp
Wire Wire Line
	5200 6100 5200 6200
Wire Wire Line
	4900 6100 4900 6600
Connection ~ 4900 6600
$Comp
L Device:R R15
U 1 1 5EFBD19E
P 6200 6850
F 0 "R15" H 6270 6896 50  0000 L CNN
F 1 "5k36" H 6270 6805 50  0000 L CNN
F 2 "IPC_RES:RESC100X50X40L25N" V 6130 6850 50  0001 C CNN
F 3 "~" H 6200 6850 50  0001 C CNN
	1    6200 6850
	1    0    0    -1  
$EndComp
$Comp
L Device:R R16
U 1 1 5EFBD288
P 6950 5900
F 0 "R16" V 6743 5900 50  0000 C CNN
F 1 "1k5" V 6834 5900 50  0000 C CNN
F 2 "IPC_RES:RESC100X50X40L25N" V 6880 5900 50  0001 C CNN
F 3 "~" H 6950 5900 50  0001 C CNN
	1    6950 5900
	0    1    1    0   
$EndComp
$Comp
L Device:R R17
U 1 1 5EFBD352
P 8050 6400
F 0 "R17" V 7950 6400 50  0000 C CNN
F 1 "1k5" V 8150 6400 50  0000 C CNN
F 2 "IPC_RES:RESC100X50X40L25N" V 7980 6400 50  0001 C CNN
F 3 "~" H 8050 6400 50  0001 C CNN
	1    8050 6400
	0    1    1    0   
$EndComp
$Comp
L Device:LED D2
U 1 1 5EFBD438
P 7450 5900
F 0 "D2" H 7441 5645 50  0000 C CNN
F 1 "LED" H 7441 5736 50  0000 C CNN
F 2 "IPC_LED:LEDC100X50X50L40N" H 7450 5900 50  0001 C CNN
F 3 "~" H 7450 5900 50  0001 C CNN
	1    7450 5900
	1    0    0    1   
$EndComp
$Comp
L Device:LED D3
U 1 1 5EFBD524
P 8450 6400
F 0 "D3" H 8450 6300 50  0000 C CNN
F 1 "LED" H 8450 6500 50  0000 C CNN
F 2 "IPC_LED:LEDC100X50X50L40N" H 8450 6400 50  0001 C CNN
F 3 "~" H 8450 6400 50  0001 C CNN
	1    8450 6400
	1    0    0    1   
$EndComp
$Comp
L Device:C C20
U 1 1 5EFBD606
P 8700 6850
F 0 "C20" H 8815 6896 50  0000 L CNN
F 1 "1n" H 8815 6805 50  0000 L CNN
F 2 "IPC_CAP:CAPC100X50X55L30N" H 8738 6700 50  0001 C CNN
F 3 "~" H 8700 6850 50  0001 C CNN
	1    8700 6850
	1    0    0    -1  
$EndComp
Wire Wire Line
	6200 7000 6200 7100
Wire Wire Line
	6200 7100 5800 7100
Connection ~ 5800 7100
Wire Wire Line
	6200 7100 6600 7100
Connection ~ 6200 7100
$Comp
L TI-Power:BQ24041 U10
U 1 1 5F0DA787
P 7200 6400
F 0 "U10" H 7200 6750 50  0000 C CNN
F 1 "BQ24041" H 7200 6050 50  0000 C CNN
F 2 "IPC_SON:SON11P40_200X200X80L30X20T150X90N" H 6950 6400 50  0001 C CNN
F 3 "http://www.ti.com/lit/ds/symlink/bq24041.pdf" H 6950 6400 50  0001 C CNN
	1    7200 6400
	1    0    0    -1  
$EndComp
Wire Wire Line
	6600 6600 6600 7100
Wire Wire Line
	6700 6500 6200 6500
Wire Wire Line
	6200 6500 6200 6700
Wire Wire Line
	6700 6400 6200 6400
Wire Wire Line
	6700 6300 6600 6300
Wire Wire Line
	6600 6300 6600 6200
Wire Wire Line
	6600 6200 6700 6200
Wire Wire Line
	6600 6200 5800 6200
Connection ~ 6600 6200
Connection ~ 5800 6200
Wire Wire Line
	6200 5900 6200 6400
Wire Wire Line
	7800 5900 7800 6200
Wire Wire Line
	7800 6200 7700 6200
Wire Wire Line
	7700 6300 7800 6300
Wire Wire Line
	7800 6300 7800 6500
Wire Wire Line
	7800 6500 7700 6500
Wire Wire Line
	7800 6500 7800 7100
Wire Wire Line
	7800 7100 6600 7100
Connection ~ 7800 6500
Connection ~ 6600 7100
Wire Wire Line
	8700 7000 8700 7100
Wire Wire Line
	8700 7100 7800 7100
Connection ~ 7800 7100
Wire Wire Line
	7800 6200 8700 6200
Connection ~ 7800 6200
Wire Wire Line
	8700 6100 8700 6200
Connection ~ 8700 6200
$Comp
L mounting_hole:MountHole_NoElec MH3
U 1 1 5C9FF983
P 9350 1800
F 0 "MH3" H 9350 2000 50  0000 C CNN
F 1 "MountHole_NoElec" H 9350 1900 50  0000 C CNN
F 2 "MTG:MTGNP356H254K500V0L" H 9350 1800 50  0001 C CNN
F 3 "" H 9350 1800 50  0000 C CNN
	1    9350 1800
	1    0    0    -1  
$EndComp
$Comp
L mounting_hole:MountHole_NoElec MH4
U 1 1 5C9FFAC5
P 9350 2200
F 0 "MH4" H 9350 2400 50  0000 C CNN
F 1 "MountHole_NoElec" H 9350 2300 50  0000 C CNN
F 2 "MTG:MTGNP356H254K500V0L" H 9350 2200 50  0001 C CNN
F 3 "" H 9350 2200 50  0000 C CNN
	1    9350 2200
	1    0    0    -1  
$EndComp
$Comp
L mounting_hole:MountHole_NoElec MH6
U 1 1 5C9FFB81
P 9350 3000
F 0 "MH6" H 9350 3200 50  0000 C CNN
F 1 "MountHole_NoElec" H 9350 3100 50  0000 C CNN
F 2 "MTG:MTGNP356H254K500V0L" H 9350 3000 50  0001 C CNN
F 3 "" H 9350 3000 50  0000 C CNN
	1    9350 3000
	1    0    0    -1  
$EndComp
$Comp
L mounting_hole:MountHole_NoElec MH7
U 1 1 5C9FFC3B
P 9350 3400
F 0 "MH7" H 9350 3600 50  0000 C CNN
F 1 "MountHole_NoElec" H 9350 3500 50  0000 C CNN
F 2 "MTG:MTGNP356H254K500V0L" H 9350 3400 50  0001 C CNN
F 3 "" H 9350 3400 50  0000 C CNN
	1    9350 3400
	1    0    0    -1  
$EndComp
$Comp
L mounting_hole:MountHole_NoElec MH8
U 1 1 5C9FFD01
P 9350 3800
F 0 "MH8" H 9350 4000 50  0000 C CNN
F 1 "MountHole_NoElec" H 9350 3900 50  0000 C CNN
F 2 "MTG:MTGNP356H254K500V0L" H 9350 3800 50  0001 C CNN
F 3 "" H 9350 3800 50  0000 C CNN
	1    9350 3800
	1    0    0    -1  
$EndComp
$Comp
L mounting_hole:MountHole_NoElec MH5
U 1 1 5C9FFDC1
P 9350 2600
F 0 "MH5" H 9350 2800 50  0000 C CNN
F 1 "MountHole_NoElec" H 9350 2700 50  0000 C CNN
F 2 "MTG:MTGNP356H254K500V0L" H 9350 2600 50  0001 C CNN
F 3 "" H 9350 2600 50  0000 C CNN
	1    9350 2600
	1    0    0    -1  
$EndComp
$Comp
L mounting_hole:MH_Elec MH1
U 1 1 5C9B830F
P 9350 1000
F 0 "MH1" H 9350 1200 50  0000 C CNN
F 1 "MH_Elec" H 9350 1100 50  0000 C CNN
F 2 "MTG:MTGP356H254K500V0L" H 9350 1000 50  0001 C CNN
F 3 "" H 9350 1000 50  0001 C CNN
	1    9350 1000
	1    0    0    -1  
$EndComp
$Comp
L mounting_hole:MH_Elec MH2
U 1 1 5C9B83ED
P 9350 1400
F 0 "MH2" H 9350 1600 50  0000 C CNN
F 1 "MH_Elec" H 9350 1500 50  0000 C CNN
F 2 "MTG:MTGP356H254K500V0L" H 9350 1400 50  0001 C CNN
F 3 "" H 9350 1400 50  0001 C CNN
	1    9350 1400
	1    0    0    -1  
$EndComp
$Comp
L power:GND #PWR038
U 1 1 5CB00EF5
P 9800 3900
F 0 "#PWR038" H 9800 3650 50  0001 C CNN
F 1 "GND" H 9805 3727 50  0000 C CNN
F 2 "" H 9800 3900 50  0001 C CNN
F 3 "" H 9800 3900 50  0001 C CNN
	1    9800 3900
	1    0    0    -1  
$EndComp
Wire Wire Line
	9800 1000 9500 1000
Wire Wire Line
	9500 1400 9800 1400
Wire Wire Line
	9800 1400 9800 1000
Wire Wire Line
	9800 3900 9800 1400
Connection ~ 9800 1400
Wire Wire Line
	4400 1100 4400 1500
Wire Wire Line
	3700 1500 3900 1500
Wire Wire Line
	4200 1500 4400 1500
Connection ~ 4400 1500
Wire Wire Line
	4400 1500 4400 1600
NoConn ~ 7700 6600
Wire Wire Line
	8700 6200 8700 6400
Wire Wire Line
	8600 6400 8700 6400
Connection ~ 8700 6400
Wire Wire Line
	8700 6400 8700 6700
Wire Wire Line
	8300 6400 8200 6400
Wire Wire Line
	7900 6400 7700 6400
Wire Wire Line
	7800 5900 7600 5900
Wire Wire Line
	7300 5900 7100 5900
Wire Wire Line
	6800 5900 6200 5900
$Comp
L Device:Fuse F1
U 1 1 5CDA5685
P 3250 1100
F 0 "F1" V 3053 1100 50  0000 C CNN
F 1 "500mA" V 3144 1100 50  0000 C CNN
F 2 "IPC_FUSE:FUSC100X52X49L25N" V 3180 1100 50  0001 C CNN
F 3 "https://industrial.panasonic.com/cdbs/www-data/pdf/AFA0000/AFA0000C7.pdf" H 3250 1100 50  0001 C CNN
F 4 "ERB-RD0R50X" V 3250 1100 50  0001 C CNN "Mfg_PN"
	1    3250 1100
	0    1    1    0   
$EndComp
Wire Wire Line
	2700 1500 3700 1500
Wire Wire Line
	3000 1100 3100 1100
Wire Wire Line
	3400 1100 3500 1100
Wire Wire Line
	6600 6600 6700 6600
Wire Wire Line
	5400 3700 5400 3950
Wire Wire Line
	5400 3950 5300 3950
Wire Wire Line
	5300 4050 5300 3950
Connection ~ 5300 3950
Wire Wire Line
	11200 7400 11200 7900
$Comp
L TI-Interface:TXB0104 U8
U 1 1 5CC4D1A8
P 11900 7650
F 0 "U8" H 11900 8050 60  0000 C CNN
F 1 "TXB0104" H 11900 7250 60  0000 C CNN
F 2 "IPC_QFN:QFN15P50_350X350X100L40X24T205N" H 11900 7450 60  0001 C CNN
F 3 "" H 11900 7450 60  0001 C CNN
	1    11900 7650
	1    0    0    -1  
$EndComp
Wire Wire Line
	11400 7900 11200 7900
Connection ~ 11200 7900
Wire Wire Line
	15300 7500 15300 8800
Text Label 14500 8700 2    50   ~ 0
D4
Wire Wire Line
	15700 8700 14500 8700
Wire Wire Line
	1300 2900 1300 4200
Text Label 2000 4100 0    50   ~ 0
D4_3V
Wire Wire Line
	1000 4100 2000 4100
$Comp
L Connector_Generic:Conn_02x02_Odd_Even J25
U 1 1 5CD47A1B
P 15600 3600
F 0 "J25" H 15650 3817 50  0000 C CNN
F 1 "Conn_02x02_Odd_Even" H 15650 3726 50  0000 C CNN
F 2 "IPC_HDR:HDRV4W41P127_2X2_254X343H116" H 15600 3600 50  0001 C CNN
F 3 "~" H 15600 3600 50  0001 C CNN
	1    15600 3600
	1    0    0    -1  
$EndComp
Text Label 15200 3600 2    50   ~ 0
D4_3V
Text Label 15200 3700 2    50   ~ 0
D4_5V
Text Label 16100 3600 0    50   ~ 0
D4
Wire Wire Line
	16100 3600 16000 3600
Wire Wire Line
	15900 3700 16000 3700
Wire Wire Line
	16000 3700 16000 3600
Connection ~ 16000 3600
Wire Wire Line
	16000 3600 15900 3600
Wire Wire Line
	15400 3700 15200 3700
Wire Wire Line
	15400 3600 15200 3600
Text Label 11100 7700 2    50   ~ 0
D4_3V
Text Label 12700 7700 0    50   ~ 0
D4_5V
Wire Wire Line
	12700 7700 12400 7700
Wire Wire Line
	11400 7700 11100 7700
Wire Wire Line
	12500 7900 12400 7900
Wire Wire Line
	12600 7400 12600 8400
Wire Wire Line
	11200 7900 11200 8400
Connection ~ 11200 8400
Wire Wire Line
	12600 6000 12600 7400
Connection ~ 12600 6000
Connection ~ 12600 7400
Wire Wire Line
	12500 6900 12500 7900
Connection ~ 12500 6900
Connection ~ 12500 7900
Wire Wire Line
	11200 6900 11200 7400
Connection ~ 11200 6900
Connection ~ 11200 7400
NoConn ~ 1900 6600
$Comp
L TI-Power:TPS61088 U5
U 1 1 5CD22FCC
P 4100 8700
F 0 "U5" H 4100 9665 50  0000 C CNN
F 1 "TPS61088" H 4100 9574 50  0000 C CNN
F 2 "IPC_QFN:QFN21P50_450X350X100L40X24T305X205N" H 4100 8700 50  0001 C CNN
F 3 "" H 4100 8700 50  0001 C CNN
	1    4100 8700
	1    0    0    -1  
$EndComp
Text Label 12700 4800 0    50   ~ 0
13_5V
Text Label 11100 4800 2    50   ~ 0
13_3V
Wire Wire Line
	11400 4700 11100 4700
Wire Wire Line
	11400 4800 11100 4800
Wire Wire Line
	11100 4900 11400 4900
Wire Wire Line
	11400 5000 11100 5000
Wire Wire Line
	11100 5100 11400 5100
Wire Wire Line
	11400 5200 11100 5200
Wire Wire Line
	11400 5300 11100 5300
Wire Wire Line
	11100 5400 11400 5400
Wire Wire Line
	12400 5400 12700 5400
Wire Wire Line
	12700 5300 12400 5300
Wire Wire Line
	12400 5200 12700 5200
Wire Wire Line
	12700 5100 12400 5100
Wire Wire Line
	12400 5000 12700 5000
Wire Wire Line
	12700 4900 12400 4900
Wire Wire Line
	12400 4800 12700 4800
Wire Wire Line
	12700 4700 12400 4700
Wire Wire Line
	11100 6100 11400 6100
Wire Wire Line
	11400 6200 11100 6200
Wire Wire Line
	11100 6300 11400 6300
Wire Wire Line
	11400 6400 11100 6400
Wire Wire Line
	11100 6500 11400 6500
Wire Wire Line
	11400 6600 11100 6600
Wire Wire Line
	11100 6700 11400 6700
Wire Wire Line
	11400 6800 11100 6800
Wire Wire Line
	12400 6800 12700 6800
Wire Wire Line
	12700 6700 12400 6700
Wire Wire Line
	12400 6600 12700 6600
Wire Wire Line
	12700 6500 12400 6500
Wire Wire Line
	12400 6400 12700 6400
Wire Wire Line
	12700 6300 12400 6300
Wire Wire Line
	12400 6200 12700 6200
Wire Wire Line
	12700 6100 12400 6100
$EndSCHEMATC
