M48
;DRILL file {KiCad (5.0.2)-1} date 03/08/2019 17:17:27
;FORMAT={-:-/ absolute / inch / decimal}
FMAT,2
INCH,TZ
T1C0.0310
%
G90
G05
T1
X2.655Y0.535
X2.555Y0.535
X2.365Y0.315
X2.365Y1.055
X2.275Y1.055
X2.275Y1.005
X2.555Y0.735
X2.605Y0.735
X2.605Y0.535
X2.655Y0.735
X2.275Y0.315
X2.275Y0.265
X2.365Y1.005
X2.365Y0.265
X2.365Y0.955
X2.275Y0.215
X2.275Y0.955
X2.365Y0.215
T0
M30
